PWD /home/giuseppe/NetBeansProjects/probceloe/docs/manual
INPUT /etc/texmf/web2c/texmf.cnf
INPUT /usr/share/texmf/web2c/texmf.cnf
INPUT /usr/share/texlive/texmf-dist/web2c/texmf.cnf
INPUT /var/lib/texmf/web2c/pdftex/pdflatex.fmt
INPUT LEAP manual.tex
OUTPUT LEAP manual.log
INPUT /usr/share/texlive/texmf-dist/tex/latex/base/article.cls
INPUT /usr/share/texlive/texmf-dist/tex/latex/base/article.cls
INPUT /usr/share/texlive/texmf-dist/tex/latex/base/size12.clo
INPUT /usr/share/texlive/texmf-dist/tex/latex/base/size12.clo
INPUT /usr/share/texlive/texmf-dist/fonts/map/fontname/texfonts.map
INPUT /usr/share/texlive/texmf-dist/fonts/tfm/public/cm/cmr12.tfm
INPUT /usr/share/texlive/texmf-dist/tex/latex/base/inputenc.sty
INPUT /usr/share/texlive/texmf-dist/tex/latex/base/inputenc.sty
INPUT /usr/share/texlive/texmf-dist/tex/latex/base/utf8.def
INPUT /usr/share/texlive/texmf-dist/tex/latex/base/utf8.def
INPUT /usr/share/texlive/texmf-dist/tex/latex/base/t1enc.dfu
INPUT /usr/share/texlive/texmf-dist/tex/latex/base/t1enc.dfu
INPUT /usr/share/texlive/texmf-dist/tex/latex/base/ot1enc.dfu
INPUT /usr/share/texlive/texmf-dist/tex/latex/base/ot1enc.dfu
INPUT /usr/share/texlive/texmf-dist/tex/latex/base/omsenc.dfu
INPUT /usr/share/texlive/texmf-dist/tex/latex/base/omsenc.dfu
INPUT /usr/share/texlive/texmf-dist/tex/generic/babel/babel.sty
INPUT /usr/share/texlive/texmf-dist/tex/generic/babel/babel.sty
INPUT /usr/share/texlive/texmf-dist/tex/generic/babel-english/english.ldf
INPUT /usr/share/texlive/texmf-dist/tex/generic/babel-english/english.ldf
INPUT /usr/share/texlive/texmf-dist/tex/generic/babel/babel.def
INPUT /usr/share/texlive/texmf-dist/tex/latex/csquotes/csquotes.sty
INPUT /usr/share/texlive/texmf-dist/tex/latex/csquotes/csquotes.sty
INPUT /usr/share/texmf/tex/latex/etoolbox/etoolbox.sty
INPUT /usr/share/texmf/tex/latex/etoolbox/etoolbox.sty
INPUT /usr/share/texlive/texmf-dist/tex/latex/etex-pkg/etex.sty
INPUT /usr/share/texlive/texmf-dist/tex/latex/etex-pkg/etex.sty
INPUT /usr/share/texlive/texmf-dist/tex/latex/graphics/keyval.sty
INPUT /usr/share/texlive/texmf-dist/tex/latex/graphics/keyval.sty
INPUT /usr/share/texlive/texmf-dist/tex/latex/csquotes/csquotes.def
INPUT /usr/share/texlive/texmf-dist/tex/latex/csquotes/csquotes.def
INPUT /usr/share/texlive/texmf-dist/tex/latex/csquotes/csquotes.cfg
INPUT /usr/share/texlive/texmf-dist/tex/latex/csquotes/csquotes.cfg
INPUT /usr/share/texlive/texmf-dist/tex/latex/base/fontenc.sty
INPUT /usr/share/texlive/texmf-dist/tex/latex/base/fontenc.sty
INPUT /usr/share/texlive/texmf-dist/tex/latex/base/t1enc.def
INPUT /usr/share/texlive/texmf-dist/tex/latex/base/t1enc.def
INPUT /usr/share/texlive/texmf-dist/fonts/tfm/jknappen/ec/ecrm1200.tfm
INPUT /usr/share/texlive/texmf-dist/tex/latex/geometry/geometry.sty
INPUT /usr/share/texlive/texmf-dist/tex/latex/geometry/geometry.sty
INPUT /usr/share/texlive/texmf-dist/tex/generic/oberdiek/ifpdf.sty
INPUT /usr/share/texlive/texmf-dist/tex/generic/oberdiek/ifpdf.sty
INPUT /usr/share/texlive/texmf-dist/tex/generic/oberdiek/ifvtex.sty
INPUT /usr/share/texlive/texmf-dist/tex/generic/oberdiek/ifvtex.sty
INPUT /usr/share/texlive/texmf-dist/tex/generic/ifxetex/ifxetex.sty
INPUT /usr/share/texlive/texmf-dist/tex/generic/ifxetex/ifxetex.sty
INPUT /usr/share/texlive/texmf-dist/tex/latex/base/alltt.sty
INPUT /usr/share/texlive/texmf-dist/tex/latex/base/alltt.sty
INPUT /usr/share/texlive/texmf-dist/tex/latex/base/makeidx.sty
INPUT /usr/share/texlive/texmf-dist/tex/latex/base/makeidx.sty
INPUT /usr/share/texlive/texmf-dist/tex/latex/graphics/color.sty
INPUT /usr/share/texlive/texmf-dist/tex/latex/graphics/color.sty
INPUT /usr/share/texlive/texmf-dist/tex/latex/latexconfig/color.cfg
INPUT /usr/share/texlive/texmf-dist/tex/latex/latexconfig/color.cfg
INPUT /usr/share/texlive/texmf-dist/tex/latex/pdftex-def/pdftex.def
INPUT /usr/share/texlive/texmf-dist/tex/latex/pdftex-def/pdftex.def
INPUT /usr/share/texlive/texmf-dist/tex/generic/oberdiek/infwarerr.sty
INPUT /usr/share/texlive/texmf-dist/tex/generic/oberdiek/infwarerr.sty
INPUT /usr/share/texlive/texmf-dist/tex/generic/oberdiek/ltxcmds.sty
INPUT /usr/share/texlive/texmf-dist/tex/generic/oberdiek/ltxcmds.sty
INPUT /usr/share/texlive/texmf-dist/tex/latex/listings/listings.sty
INPUT /usr/share/texlive/texmf-dist/tex/latex/listings/listings.sty
INPUT /usr/share/texlive/texmf-dist/tex/latex/listings/lstmisc.sty
INPUT /usr/share/texlive/texmf-dist/tex/latex/listings/lstmisc.sty
INPUT /usr/share/texlive/texmf-dist/tex/latex/listings/listings.cfg
INPUT /usr/share/texlive/texmf-dist/tex/latex/listings/listings.cfg
INPUT /usr/share/texlive/texmf-dist/tex/latex/hyperref/hyperref.sty
INPUT /usr/share/texlive/texmf-dist/tex/latex/hyperref/hyperref.sty
INPUT /usr/share/texlive/texmf-dist/tex/generic/oberdiek/hobsub-hyperref.sty
INPUT /usr/share/texlive/texmf-dist/tex/generic/oberdiek/hobsub-hyperref.sty
INPUT /usr/share/texlive/texmf-dist/tex/generic/oberdiek/hobsub-hyperref.sty
INPUT /usr/share/texlive/texmf-dist/tex/generic/oberdiek/hobsub-generic.sty
INPUT /usr/share/texlive/texmf-dist/tex/generic/oberdiek/hobsub-generic.sty
INPUT /usr/share/texlive/texmf-dist/tex/latex/oberdiek/auxhook.sty
INPUT /usr/share/texlive/texmf-dist/tex/latex/oberdiek/auxhook.sty
INPUT /usr/share/texlive/texmf-dist/tex/latex/oberdiek/kvoptions.sty
INPUT /usr/share/texlive/texmf-dist/tex/latex/oberdiek/kvoptions.sty
INPUT /usr/share/texlive/texmf-dist/tex/latex/hyperref/pd1enc.def
INPUT /usr/share/texlive/texmf-dist/tex/latex/hyperref/pd1enc.def
INPUT /usr/share/texlive/texmf-dist/tex/latex/latexconfig/hyperref.cfg
INPUT /usr/share/texlive/texmf-dist/tex/latex/latexconfig/hyperref.cfg
INPUT /usr/share/texlive/texmf-dist/tex/latex/url/url.sty
INPUT /usr/share/texlive/texmf-dist/tex/latex/url/url.sty
INPUT /usr/share/texlive/texmf-dist/tex/latex/hyperref/hpdftex.def
INPUT /usr/share/texlive/texmf-dist/tex/latex/hyperref/hpdftex.def
INPUT /usr/share/texlive/texmf-dist/tex/latex/oberdiek/rerunfilecheck.sty
INPUT /usr/share/texlive/texmf-dist/tex/latex/oberdiek/rerunfilecheck.sty
INPUT /usr/share/texlive/texmf-dist/tex/latex/hyperref/puenc.def
INPUT /usr/share/texlive/texmf-dist/tex/latex/hyperref/puenc.def
OUTPUT LEAP manual.idx
INPUT LEAP manual.aux
INPUT LEAP manual.aux
OUTPUT LEAP manual.aux
INPUT /usr/share/texlive/texmf-dist/tex/context/base/supp-pdf.mkii
INPUT /usr/share/texlive/texmf-dist/tex/context/base/supp-pdf.mkii
INPUT /usr/share/texlive/texmf-dist/tex/latex/hyperref/nameref.sty
INPUT /usr/share/texlive/texmf-dist/tex/latex/hyperref/nameref.sty
INPUT /usr/share/texlive/texmf-dist/tex/generic/oberdiek/gettitlestring.sty
INPUT /usr/share/texlive/texmf-dist/tex/generic/oberdiek/gettitlestring.sty
INPUT LEAP manual.out
INPUT LEAP manual.out
INPUT LEAP manual.out
INPUT LEAP manual.out
OUTPUT LEAP manual.pdf
INPUT ./LEAP manual.out
INPUT ./LEAP manual.out
OUTPUT LEAP manual.out
INPUT /usr/share/texlive/texmf-dist/fonts/tfm/jknappen/ec/ecrm2074.tfm
INPUT /usr/share/texlive/texmf-dist/fonts/tfm/jknappen/ec/ecrm1440.tfm
INPUT /usr/share/texlive/texmf-dist/fonts/tfm/public/cm/cmr12.tfm
INPUT /usr/share/texlive/texmf-dist/fonts/tfm/public/cm/cmmi12.tfm
INPUT /usr/share/texlive/texmf-dist/fonts/tfm/public/cm/cmsy10.tfm
INPUT /usr/share/texlive/texmf-dist/fonts/tfm/jknappen/ec/ecrm1728.tfm
INPUT /usr/share/texlive/texmf-dist/fonts/tfm/jknappen/ec/ecbx1728.tfm
INPUT LEAP manual.toc
INPUT LEAP manual.toc
INPUT /usr/share/texlive/texmf-dist/fonts/tfm/jknappen/ec/ecbx1200.tfm
INPUT /usr/share/texlive/texmf-dist/fonts/tfm/public/cm/cmr8.tfm
INPUT /usr/share/texlive/texmf-dist/fonts/tfm/public/cm/cmr6.tfm
INPUT /usr/share/texlive/texmf-dist/fonts/tfm/public/cm/cmmi12.tfm
INPUT /usr/share/texlive/texmf-dist/fonts/tfm/public/cm/cmmi8.tfm
INPUT /usr/share/texlive/texmf-dist/fonts/tfm/public/cm/cmmi6.tfm
INPUT /usr/share/texlive/texmf-dist/fonts/tfm/public/cm/cmsy10.tfm
INPUT /usr/share/texlive/texmf-dist/fonts/tfm/public/cm/cmsy8.tfm
INPUT /usr/share/texlive/texmf-dist/fonts/tfm/public/cm/cmsy6.tfm
OUTPUT LEAP manual.toc
INPUT /usr/share/texlive/texmf-dist/fonts/tfm/jknappen/ec/ecrm0800.tfm
INPUT /usr/share/texlive/texmf-dist/fonts/tfm/jknappen/ec/ecrm1000.tfm
INPUT /usr/share/texlive/texmf-dist/fonts/tfm/jknappen/ec/ecrm0700.tfm
INPUT /var/lib/texmf/fonts/map/pdftex/updmap/pdftex.map
INPUT /usr/share/texlive/texmf-dist/fonts/tfm/jknappen/ec/ecbx1440.tfm
INPUT /usr/share/texlive/texmf-dist/tex/latex/base/t1cmtt.fd
INPUT /usr/share/texlive/texmf-dist/tex/latex/base/t1cmtt.fd
INPUT /usr/share/texlive/texmf-dist/fonts/tfm/jknappen/ec/ectt1200.tfm
INPUT Codice/cli
INPUT /usr/share/texlive/texmf-dist/tex/latex/listings/lstlang1.sty
INPUT /usr/share/texlive/texmf-dist/tex/latex/listings/lstlang1.sty
INPUT /usr/share/texlive/texmf-dist/fonts/tfm/jknappen/ec/ectt0800.tfm
INPUT Codice/cli
INPUT Codice/cli
INPUT /usr/share/texlive/texmf-dist/fonts/tfm/jknappen/ec/ecrm1095.tfm
INPUT /usr/share/texlive/texmf-dist/fonts/tfm/public/cm/cmtt12.tfm
INPUT /usr/share/texlive/texmf-dist/fonts/tfm/public/cm/cmtt8.tfm
INPUT /usr/share/texlive/texmf-dist/fonts/tfm/public/cm/cmtt8.tfm
INPUT /usr/share/texlive/texmf-dist/fonts/tfm/public/cm/cmtt10.tfm
INPUT /usr/share/texlive/texmf-dist/fonts/tfm/public/cm/cmtt8.tfm
INPUT /usr/share/texlive/texmf-dist/fonts/tfm/public/cm/cmtt8.tfm
INPUT /usr/share/texlive/texmf-dist/tex/latex/base/omscmr.fd
INPUT /usr/share/texlive/texmf-dist/tex/latex/base/omscmr.fd
INPUT Codice/father.owl
INPUT /usr/share/texlive/texmf-dist/tex/latex/listings/lstlang1.sty
INPUT /usr/share/texlive/texmf-dist/tex/latex/listings/lstlang1.sty
INPUT /usr/share/texlive/texmf-dist/tex/latex/listings/lstmisc.sty
INPUT /usr/share/texlive/texmf-dist/tex/latex/listings/lstmisc.sty
INPUT Codice/father.owl
INPUT Codice/father.owl
INPUT Codice/father.owl
INPUT Codice/father.owl
INPUT Codice/father.owl
INPUT Codice/father.owl
INPUT Codice/father.owl
INPUT Codice/father.owl
INPUT Codice/father.conf
INPUT Codice/father.conf
INPUT Codice/father.conf
INPUT /usr/share/texlive/texmf-dist/tex/latex/base/t1cmss.fd
INPUT /usr/share/texlive/texmf-dist/tex/latex/base/t1cmss.fd
INPUT /usr/share/texlive/texmf-dist/fonts/tfm/jknappen/ec/ecss1200.tfm
INPUT LEAP manual.ind
INPUT LEAP manual.ind
INPUT LEAP manual.aux
INPUT ./LEAP manual.out
INPUT ./LEAP manual.out
INPUT /usr/share/texmf/fonts/enc/dvips/cm-super/cm-super-t1.enc
INPUT /usr/share/texlive/texmf-dist/fonts/type1/public/amsfonts/cm/cmmi10.pfb
INPUT /usr/share/texlive/texmf-dist/fonts/type1/public/amsfonts/cm/cmmi12.pfb
INPUT /usr/share/texlive/texmf-dist/fonts/type1/public/amsfonts/cm/cmmi8.pfb
INPUT /usr/share/texlive/texmf-dist/fonts/type1/public/amsfonts/cm/cmr10.pfb
INPUT /usr/share/texlive/texmf-dist/fonts/type1/public/amsfonts/cm/cmr12.pfb
INPUT /usr/share/texlive/texmf-dist/fonts/type1/public/amsfonts/cm/cmsy10.pfb
INPUT /usr/share/texlive/texmf-dist/fonts/type1/public/amsfonts/cm/cmsy8.pfb
INPUT /usr/share/texlive/texmf-dist/fonts/type1/public/amsfonts/cm/cmtt12.pfb
INPUT /usr/share/texmf/fonts/type1/public/cm-super/sfbx1200.pfb
INPUT /usr/share/texmf/fonts/type1/public/cm-super/sfbx1440.pfb
INPUT /usr/share/texmf/fonts/type1/public/cm-super/sfbx1728.pfb
INPUT /usr/share/texmf/fonts/type1/public/cm-super/sfrm0700.pfb
INPUT /usr/share/texmf/fonts/type1/public/cm-super/sfrm0800.pfb
INPUT /usr/share/texmf/fonts/type1/public/cm-super/sfrm1000.pfb
INPUT /usr/share/texmf/fonts/type1/public/cm-super/sfrm1095.pfb
INPUT /usr/share/texmf/fonts/type1/public/cm-super/sfrm1200.pfb
INPUT /usr/share/texmf/fonts/type1/public/cm-super/sfrm1440.pfb
INPUT /usr/share/texmf/fonts/type1/public/cm-super/sfrm2074.pfb
INPUT /usr/share/texmf/fonts/type1/public/cm-super/sfss1200.pfb
INPUT /usr/share/texmf/fonts/type1/public/cm-super/sftt0800.pfb
INPUT /usr/share/texmf/fonts/type1/public/cm-super/sftt1200.pfb
