\relax 
\providecommand\hyper@newdestlabel[2]{}
\providecommand\HyperFirstAtBeginDocument{\AtBeginDocument}
\HyperFirstAtBeginDocument{\ifx\hyper@anchor\@undefined
\global\let\oldcontentsline\contentsline
\gdef\contentsline#1#2#3#4{\oldcontentsline{#1}{#2}{#3}}
\global\let\oldnewlabel\newlabel
\gdef\newlabel#1#2{\newlabelxx{#1}#2}
\gdef\newlabelxx#1#2#3#4#5#6{\oldnewlabel{#1}{{#2}{#3}}}
\AtEndDocument{\ifx\hyper@anchor\@undefined
\let\contentsline\oldcontentsline
\let\newlabel\oldnewlabel
\fi}
\fi}
\global\let\hyper@last\relax 
\gdef\HyperFirstAtBeginDocument#1{#1}
\providecommand\HyField@AuxAddToFields[1]{}
\providecommand\HyField@AuxAddToCoFields[2]{}
\select@language{english}
\@writefile{toc}{\select@language{english}}
\@writefile{lof}{\select@language{english}}
\@writefile{lot}{\select@language{english}}
\@writefile{toc}{\contentsline {section}{\numberline {1}Introduction}{1}{section.1}}
\@writefile{toc}{\contentsline {section}{\numberline {2}How to use LEAP}{2}{section.2}}
\@writefile{toc}{\contentsline {subsection}{\numberline {2.1}Install}{2}{subsection.2.1}}
\@writefile{lol}{\contentsline {lstlisting}{Codice/cli}{2}{lstlisting.-1}}
\@writefile{toc}{\contentsline {subsection}{\numberline {2.2}Run}{2}{subsection.2.2}}
\@writefile{toc}{\contentsline {section}{\numberline {3}Available Options}{3}{section.3}}
\@writefile{toc}{\contentsline {subsection}{\numberline {3.1}ProbCELOE Options}{3}{subsection.3.1}}
\@writefile{toc}{\contentsline {subsubsection}{\numberline {3.1.1}Hidden Options (for Developers Only)}{3}{subsubsection.3.1.1}}
\@writefile{toc}{\contentsline {subsection}{\numberline {3.2}EDGE Options}{3}{subsection.3.2}}
\@writefile{toc}{\contentsline {subsubsection}{\numberline {3.2.1}Hidden Options (for Developers Only)}{4}{subsubsection.3.2.1}}
\newlabel{subsubsec:EDGE:hidden_options}{{3.2.1}{4}{Hidden Options (for Developers Only)}{subsubsection.3.2.1}{}}
\@writefile{toc}{\contentsline {subsection}{\numberline {3.3}Other (for developers only)}{4}{subsection.3.3}}
\@writefile{toc}{\contentsline {subsubsection}{\numberline {3.3.1}CLI\_LEAP}{5}{subsubsection.3.3.1}}
\@writefile{toc}{\contentsline {section}{\numberline {4}A Complete Example}{5}{section.4}}
\newlabel{sec:complete_example}{{4}{5}{A Complete Example}{section.4}{}}
\@writefile{lol}{\contentsline {lstlisting}{Codice/father.owl}{5}{lstlisting.-5}}
\@writefile{lol}{\contentsline {lstlisting}{Codice/father.owl}{5}{lstlisting.-6}}
\@writefile{lol}{\contentsline {lstlisting}{Codice/father.owl}{6}{lstlisting.-7}}
\@writefile{lol}{\contentsline {lstlisting}{Codice/father.conf}{6}{lstlisting.-8}}
